2 Bitacora 2 – Bitácoras Grupo #2, CA-204 (II-2024)
…
Sin embargo, la disminución de las emisiones de CO2 dado por el aumento en la producción de energías renovables, es poco visible; esto puede ser causado por la variedad de datos con los que se realiza el gráfico.

Con el fin de facilitar la realización de gráficos a partir de los datos brindados, se agruparon los datos para algunas de las variables de forma anual.

annual <- df %>% group_by(Year, Country) %>% summarise(avg_electricity_price = mean(Electricity.Prices), avg_production = sum(Production..GWh.), avg_investment = sum(Investments..USD.), avg_CO2_emissions = mean(CO2.Emissions))

`summarise()` has grouped output by 'Year'. You can override using the
`.groups` argument.

annual

# A tibble: 240 × 6
# Groups:   Year [24]
    Year Country   avg_electricity_price avg_production avg_investment
   <int> <chr>                     <dbl>          <dbl>          <dbl>
 1  2000 Australia                 0.222        506604.   61304447363.
 2  2000 Brazil                    0.273        249200.   33432083699.
 3  2000 Canada                    0.255        446179.   44592316512.
 4  2000 China                     0.304        643264.   67993872322.
 5  2000 France                    0.301        793346.   85129952659.
 6  2000 Germany                   0.280        457383.   33345114186.
 7  2000 India                     0.350        171600.   37184083362.
 8  2000 Japan                     0.347        450491.   34361832018.
 9  2000 Russia                    0.255        575303.   42500401520.
10  2000 USA                       0.296        297319.   59099511046.
# ℹ 230 more rows
# ℹ 1 more variable: avg_CO2_emissions <dbl>
…
annual <- df %>% group_by(Year, Country) %>% summarise(avg_electricity_price = mean(Electricity.Prices), avg_production = sum(Production..GWh.), avg_investment = sum(Investments..USD.), avg_CO2_emissions = mean(CO2.Emissions))

`summarise()` has grouped output by 'Year'. You can override using the
`.groups` argument.

annual

# A tibble: 240 × 6
# Groups:   Year [24]
    Year Country   avg_electricity_price avg_production avg_investment
   <int> <chr>                     <dbl>          <dbl>          <dbl>
 1  2000 Australia                 0.222        506604.   61304447363.
 2  2000 Brazil                    0.273        249200.   33432083699.
 3  2000 Canada                    0.255        446179.   44592316512.
 4  2000 China                     0.304        643264.   67993872322.
 5  2000 France                    0.301        793346.   85129952659.
 6  2000 Germany                   0.280        457383.   33345114186.
 7  2000 India                     0.350        171600.   37184083362.
 8  2000 Japan                     0.347        450491.   34361832018.
 9  2000 Russia                    0.255        575303.   42500401520.
10  2000 USA                       0.296        297319.   59099511046.
# ℹ 230 more rows
# ℹ 1 more variable: avg_CO2_emissions <dbl>
…
