Bitácoras Grupo #2, CA-204 (II-2024) - 3 Bitácora 3
…
Tomando en consideración las recomendaciones sobre la base de datos, se decidió reordenarla, de acuerdo a las categorías más relevantes a la pregunta de investigación, y anualizar los datos, uniendo las columnas con el mismo país, año y tipo de energía.

Además, con el fin de automatizar la carga de la base de datos, la ruta de acceso parte desde la carpeta con el repositorio, de modo que al clonar el repositorio, este documento por sí mismo, sea capaz de acceder a la base de datos, facilitando el proceso.

original <- read.csv("data/complete_renewable_energy_dataset.csv")
data <- original|> group_by(Country, Year, Energy.Type, Renewable.Energy.Education.Programs, Government.Policies) |> summarise(Total.Production = sum(Production..GWh.), Electricity.Prices = mean(Electricity.Prices), R.D.Expenditure = sum(R.D.Expenditure), CO2.Emissions = sum(CO2.Emissions), Investments..USD. = sum(Investments..USD.), Public.Awareness = mean(Public.Awareness), Educational.Level = mean(Educational.Level), Energy.Exports = sum(Energy.Exports), Energy.Imports = sum(Energy.Imports), Renewable.Energy.Jobs = sum(Renewable.Energy.Jobs), Renewable.Energy.Patents = sum(Renewable.Energy.Patents), Corruption.Perception.Index = mean(Corruption.Perception.Index))

`summarise()` has grouped output by 'Country', 'Year', 'Energy.Type',
'Renewable.Energy.Education.Programs'. You can override using the `.groups`
argument.

data

# A tibble: 1,951 × 17
# Groups:   Country, Year, Energy.Type, Renewable.Energy.Education.Programs
#   [1,550]
   Country    Year Energy.Type Renewable.Energy.Education.…¹ Government.Policies
   <chr>     <int> <chr>                               <int>               <int>
 1 Australia  2000 Biomass                                 1                   1
 2 Australia  2000 Geothermal                              0                   0
 3 Australia  2000 Geothermal                              1                   0
 4 Australia  2000 Hydro                                   0                   1
 5 Australia  2000 Hydro                                   1                   1
 6 Australia  2000 Solar                                   0                   0
 7 Australia  2000 Wind                                    0                   0
 8 Australia  2000 Wind                                    1                   0
 9 Australia  2001 Biomass                                 0                   0
10 Australia  2001 Biomass                                 1                   1
# ℹ 1,941 more rows
# ℹ abbreviated name: ¹​Renewable.Energy.Education.Programs
# ℹ 12 more variables: Total.Production <dbl>, Electricity.Prices <dbl>,
#   R.D.Expenditure <dbl>, CO2.Emissions <dbl>, Investments..USD. <dbl>,
#   Public.Awareness <dbl>, Educational.Level <dbl>, Energy.Exports <dbl>,
#   Energy.Imports <dbl>, Renewable.Energy.Jobs <int>,
#   Renewable.Energy.Patents <int>, Corruption.Perception.Index <dbl>
…
